<svg viewBox="0 0 144 145" fill="none" xmlns="http://www.w3.org/2000/svg">
<circle cx="72" cy="72.5312" r="70" fill="#00B2D8" stroke="white" stroke-width="4"/>
<path fill-rule="evenodd" clip-rule="evenodd" d="M62.862 87.5312H44.25C42.8576 87.5312 41.5223 86.9781 40.5377 85.9936C39.5531 85.009 39 83.6736 39 82.2812V47.7812C39 44.8832 41.352 42.5312 44.25 42.5312H99.75C102.648 42.5312 105 44.8832 105 47.7812V82.2812C105 83.6736 104.447 85.009 103.462 85.9936C102.478 86.9781 101.142 87.5312 99.75 87.5312H81.138C81.651 91.6562 83.553 95.4872 86.445 98.8022C86.7289 99.1277 86.9131 99.5281 86.9757 99.9554C87.0382 100.383 86.9765 100.819 86.7977 101.212C86.619 101.606 86.3309 101.939 85.9678 102.173C85.6047 102.407 85.1819 102.531 84.75 102.531H59.25C58.8181 102.531 58.3953 102.407 58.0322 102.173C57.6691 101.939 57.381 101.606 57.2023 101.212C57.0235 100.819 56.9618 100.383 57.0243 99.9554C57.0869 99.5281 57.2711 99.1277 57.555 98.8022C60.447 95.4872 62.349 91.6562 62.862 87.5312ZM100.5 47.7812V82.2812C100.5 82.4802 100.421 82.6709 100.28 82.8116C100.14 82.9522 99.9489 83.0312 99.75 83.0312H44.25C44.0511 83.0312 43.8603 82.9522 43.7197 82.8116C43.579 82.6709 43.5 82.4802 43.5 82.2812V47.7812C43.5 47.5823 43.579 47.3916 43.7197 47.2509C43.8603 47.1103 44.0511 47.0312 44.25 47.0312H99.75C99.9489 47.0312 100.14 47.1103 100.28 47.2509C100.421 47.3916 100.5 47.5823 100.5 47.7812ZM76.611 87.5312C76.986 91.3293 78.303 94.8663 80.28 98.0312H63.72C65.697 94.8663 67.011 91.3293 67.389 87.5312H76.611Z" fill="white"/>
</svg>
